<svg width="15" height="8" viewBox="0 0 15 8" fill="none" xmlns="http://www.w3.org/2000/svg">
<path d="M14.1178 0.291415C13.9317 0.0929657 13.6294 0.0929657 13.4434 0.291415L7.51314 6.6294L1.57128 0.291415C1.38523 0.0929657 1.08291 0.0929657 0.896859 0.291415C0.710813 0.489865 0.710813 0.812346 0.896859 1.0108L7.1643 7.69607C7.25732 7.79529 7.3736 7.8449 7.50151 7.8449C7.61779 7.8449 7.7457 7.79529 7.83872 7.69607L14.1062 1.0108C14.3038 0.812346 14.3038 0.489865 14.1178 0.291415Z" fill="#A6A6A6"/>
</svg>
