<svg width="25" height="25" viewBox="0 0 25 25" fill="none" xmlns="http://www.w3.org/2000/svg">
<g clip-path="url(#clip0)">
<path d="M12.5 12.2266C15.2796 12.2266 17.5331 9.48964 17.5331 6.11336C17.5331 2.737 16.7932 0 12.5 0C8.2068 0 7.4668 2.737 7.4668 6.11336C7.4668 9.48964 9.7203 12.2266 12.5 12.2266Z" fill="#0EB0A3"/>
<path d="M2.99342 21.5609C2.99256 21.3551 2.99171 21.5029 2.99342 21.5609V21.5609Z" fill="#0EB0A3"/>
<path d="M22.0059 21.7217C22.0086 21.6654 22.0068 21.3307 22.0059 21.7217V21.7217Z" fill="#0EB0A3"/>
<path d="M21.9953 21.3141C21.9021 15.4325 21.134 13.7566 15.2559 12.6957C15.2559 12.6957 14.4285 13.7501 12.4999 13.7501C10.5713 13.7501 9.74376 12.6957 9.74376 12.6957C3.92984 13.745 3.11498 15.3961 3.00784 21.123C2.99905 21.5907 2.99498 21.6152 2.99341 21.561C2.99377 21.6627 2.99419 21.8508 2.99419 22.1789C2.99419 22.1789 4.39362 25 12.4999 25C20.6061 25 22.0056 22.1789 22.0056 22.1789C22.0056 21.9681 22.0058 21.8215 22.006 21.7218C22.0044 21.7554 22.0013 21.6903 21.9953 21.3141Z" fill="#0EB0A3"/>
</g>
<defs>
<clipPath id="clip0">
<rect width="25" height="25" fill="white"/>
</clipPath>
</defs>
</svg>
